^C:\USERS\DELL\SOURCE\REPOS\SQUARE\DEBUG\HELPERS.OBJ|C:\USERS\DELL\SOURCE\REPOS\SQUARE\DEBUG\MAIN.OBJ
C:\USERS\DELL\SOURCE\REPOS\SQUARE\DEBUG\SQUARE.ILK
C:\USERS\DELL\SOURCE\REPOS\SQUARE\DEBUG\SQUARE.EXE
C:\USERS\DELL\SOURCE\REPOS\SQUARE\DEBUG\SQUARE.PDB
